timeStamp,elapsed,label,responseCode,responseMessage,threadName,dataType,success,failureMessage,bytes,sentBytes,grpThreads,allThreads,URL,Latency,IdleTime,Connect
1668433791529,1070,POST - Register,500,Internal Server Error,Thread Group 1-1,text,false,,875,719,10,10,https://market-final-project.herokuapp.com/auth/register,1070,0,810
1668433791628,1010,POST - Register,500,Internal Server Error,Thread Group 1-2,text,false,,875,719,10,10,https://market-final-project.herokuapp.com/auth/register,1010,0,759
1668433791730,1002,POST - Register,500,Internal Server Error,Thread Group 1-3,text,false,,875,719,10,10,https://market-final-project.herokuapp.com/auth/register,1002,0,751
1668433791830,1013,POST - Register,500,Internal Server Error,Thread Group 1-4,text,false,,875,719,10,10,https://market-final-project.herokuapp.com/auth/register,1013,0,760
1668433792599,289,POST - Login,401,Unauthorized,Thread Group 1-1,text,false,,355,280,10,10,https://market-final-project.herokuapp.com/auth/login,289,0,0
1668433792639,279,POST - Login,401,Unauthorized,Thread Group 1-2,text,false,,355,280,10,10,https://market-final-project.herokuapp.com/auth/login,279,0,0
1668433792732,267,POST - Login,401,Unauthorized,Thread Group 1-3,text,false,,355,280,10,10,https://market-final-project.herokuapp.com/auth/login,267,0,0
1668433791930,1112,POST - Register,500,Internal Server Error,Thread Group 1-5,text,false,,875,719,10,10,https://market-final-project.herokuapp.com/auth/register,1112,0,843
1668433792843,258,POST - Login,401,Unauthorized,Thread Group 1-4,text,false,,355,280,10,10,https://market-final-project.herokuapp.com/auth/login,258,0,0
1668433792028,1104,POST - Register,500,Internal Server Error,Thread Group 1-6,text,false,,875,719,10,10,https://market-final-project.herokuapp.com/auth/register,1104,0,840
1668433792128,1008,POST - Register,500,Internal Server Error,Thread Group 1-7,text,false,,875,719,10,10,https://market-final-project.herokuapp.com/auth/register,1008,0,756
1668433792889,270,POST - Seller Product,403,Forbidden,Thread Group 1-1,text,false,,354,230,10,10,https://market-final-project.herokuapp.com/seller/product,270,0,0
1668433792919,265,POST - Seller Product,403,Forbidden,Thread Group 1-2,text,false,,354,230,10,10,https://market-final-project.herokuapp.com/seller/product,265,0,0
1668433792229,1003,POST - Register,500,Internal Server Error,Thread Group 1-8,text,false,,875,719,10,10,https://market-final-project.herokuapp.com/auth/register,1003,0,753
1668433792999,261,POST - Seller Product,403,Forbidden,Thread Group 1-3,text,false,,354,230,10,10,https://market-final-project.herokuapp.com/seller/product,261,0,0
1668433793042,259,POST - Login,401,Unauthorized,Thread Group 1-5,text,false,,355,280,10,10,https://market-final-project.herokuapp.com/auth/login,259,0,0
1668433792330,1014,POST - Register,500,Internal Server Error,Thread Group 1-9,text,false,,875,719,10,10,https://market-final-project.herokuapp.com/auth/register,1014,0,762
1668433793101,262,POST - Seller Product,403,Forbidden,Thread Group 1-4,text,false,,354,230,10,10,https://market-final-project.herokuapp.com/seller/product,262,0,0
1668433793133,274,POST - Login,401,Unauthorized,Thread Group 1-6,text,false,,355,280,10,10,https://market-final-project.herokuapp.com/auth/login,274,0,0
1668433793136,272,POST - Login,401,Unauthorized,Thread Group 1-7,text,false,,355,280,10,10,https://market-final-project.herokuapp.com/auth/login,272,0,0
1668433793159,276,GET - Seller Product,403,Forbidden,Thread Group 1-1,text,false,,354,210,10,10,https://market-final-project.herokuapp.com/seller/product,276,0,0
1668433792428,1020,POST - Register,500,Internal Server Error,Thread Group 1-10,text,false,,875,719,10,10,https://market-final-project.herokuapp.com/auth/register,1020,0,765
1668433793185,265,GET - Seller Product,403,Forbidden,Thread Group 1-2,text,false,,354,210,10,10,https://market-final-project.herokuapp.com/seller/product,265,0,0
1668433793232,272,POST - Login,401,Unauthorized,Thread Group 1-8,text,false,,355,280,10,10,https://market-final-project.herokuapp.com/auth/login,272,0,0
1668433793261,256,GET - Seller Product,403,Forbidden,Thread Group 1-3,text,false,,354,210,10,10,https://market-final-project.herokuapp.com/seller/product,256,0,0
1668433793301,261,POST - Seller Product,403,Forbidden,Thread Group 1-5,text,false,,354,230,10,10,https://market-final-project.herokuapp.com/seller/product,261,0,0
1668433793344,265,POST - Login,401,Unauthorized,Thread Group 1-9,text,false,,355,280,10,10,https://market-final-project.herokuapp.com/auth/login,265,0,0
1668433793363,258,GET - Seller Product,403,Forbidden,Thread Group 1-4,text,false,,354,210,10,10,https://market-final-project.herokuapp.com/seller/product,258,0,0
1668433793409,260,POST - Seller Product,403,Forbidden,Thread Group 1-7,text,false,,354,230,10,10,https://market-final-project.herokuapp.com/seller/product,260,0,0
1668433793407,272,POST - Seller Product,403,Forbidden,Thread Group 1-6,text,false,,354,230,10,10,https://market-final-project.herokuapp.com/seller/product,272,0,0
1668433793435,270,GET - Seller Product {id},403,Forbidden,Thread Group 1-1,text,false,,354,214,10,10,https://market-final-project.herokuapp.com/seller/product/:id,270,0,0
1668433793448,269,POST - Login,401,Unauthorized,Thread Group 1-10,text,false,,355,280,10,10,https://market-final-project.herokuapp.com/auth/login,269,0,0
1668433793451,274,GET - Seller Product {id},403,Forbidden,Thread Group 1-2,text,false,,354,214,10,10,https://market-final-project.herokuapp.com/seller/product/:id,274,0,0
1668433793504,260,POST - Seller Product,403,Forbidden,Thread Group 1-8,text,false,,354,230,10,10,https://market-final-project.herokuapp.com/seller/product,260,0,0
1668433793518,259,GET - Seller Product {id},403,Forbidden,Thread Group 1-3,text,false,,354,214,10,10,https://market-final-project.herokuapp.com/seller/product/:id,259,0,0
1668433793563,271,GET - Seller Product,403,Forbidden,Thread Group 1-5,text,false,,354,210,10,10,https://market-final-project.herokuapp.com/seller/product,271,0,0
1668433793610,278,POST - Seller Product,403,Forbidden,Thread Group 1-9,text,false,,354,230,10,10,https://market-final-project.herokuapp.com/seller/product,278,0,0
1668433793621,267,GET - Seller Product {id},403,Forbidden,Thread Group 1-4,text,false,,354,214,10,10,https://market-final-project.herokuapp.com/seller/product/:id,267,0,0
1668433793670,274,GET - Seller Product,403,Forbidden,Thread Group 1-7,text,false,,354,210,10,10,https://market-final-project.herokuapp.com/seller/product,274,0,0
1668433793679,275,GET - Seller Product,403,Forbidden,Thread Group 1-6,text,false,,354,210,10,10,https://market-final-project.herokuapp.com/seller/product,275,0,0
1668433793719,258,POST - Seller Product,403,Forbidden,Thread Group 1-10,text,false,,354,230,10,10,https://market-final-project.herokuapp.com/seller/product,258,0,0
1668433793725,262,DELETE - Seller Product {id},403,Forbidden,Thread Group 1-2,text,false,,354,236,10,10,https://market-final-project.herokuapp.com/seller/product/:id,262,0,0
1668433793719,270,DELETE - Seller Product {id},403,Forbidden,Thread Group 1-1,text,false,,354,236,10,10,https://market-final-project.herokuapp.com/seller/product/:id,270,0,0
1668433793765,264,GET - Seller Product,403,Forbidden,Thread Group 1-8,text,false,,354,210,10,10,https://market-final-project.herokuapp.com/seller/product,264,0,0
1668433793777,256,DELETE - Seller Product {id},403,Forbidden,Thread Group 1-3,text,false,,354,236,10,10,https://market-final-project.herokuapp.com/seller/product/:id,256,0,0
1668433793834,271,GET - Seller Product {id},403,Forbidden,Thread Group 1-5,text,false,,354,214,10,10,https://market-final-project.herokuapp.com/seller/product/:id,271,0,0
1668433793888,267,GET - Seller Product,403,Forbidden,Thread Group 1-9,text,false,,354,210,10,10,https://market-final-project.herokuapp.com/seller/product,267,0,0
1668433793888,270,DELETE - Seller Product {id},403,Forbidden,Thread Group 1-4,text,false,,354,236,10,10,https://market-final-project.herokuapp.com/seller/product/:id,270,0,0
1668433793955,274,GET - Seller Product {id},403,Forbidden,Thread Group 1-6,text,false,,354,214,10,10,https://market-final-project.herokuapp.com/seller/product/:id,274,0,0
1668433793945,261,GET - Seller Product {id},403,Forbidden,Thread Group 1-7,text,false,,354,214,10,10,https://market-final-project.herokuapp.com/seller/product/:id,261,0,0
1668433793977,262,GET - Seller Product,403,Forbidden,Thread Group 1-10,text,false,,354,210,10,10,https://market-final-project.herokuapp.com/seller/product,262,0,0
1668433794029,259,GET - Seller Product {id},403,Forbidden,Thread Group 1-8,text,false,,354,214,10,10,https://market-final-project.herokuapp.com/seller/product/:id,259,0,0
1668433794106,263,DELETE - Seller Product {id},403,Forbidden,Thread Group 1-5,text,false,,354,236,10,10,https://market-final-project.herokuapp.com/seller/product/:id,263,0,0
1668433794289,259,DELETE - Seller Product {id},403,Forbidden,Thread Group 1-8,text,false,,354,236,10,10,https://market-final-project.herokuapp.com/seller/product/:id,259,0,0
1668433794235,3259,DELETE - Seller Product {id},403,Forbidden,Thread Group 1-6,text,false,,354,236,10,10,https://market-final-project.herokuapp.com/seller/product/:id,3259,0,0
1668433794235,3274,DELETE - Seller Product {id},403,Forbidden,Thread Group 1-7,text,false,,354,236,10,10,https://market-final-project.herokuapp.com/seller/product/:id,3273,0,0
1668433794156,3370,GET - Seller Product {id},403,Forbidden,Thread Group 1-9,text,false,,354,214,10,10,https://market-final-project.herokuapp.com/seller/product/:id,3370,0,0
1668433794239,3296,GET - Seller Product {id},403,Forbidden,Thread Group 1-10,text,false,,354,214,10,10,https://market-final-project.herokuapp.com/seller/product/:id,3296,0,0
1668433797526,265,DELETE - Seller Product {id},403,Forbidden,Thread Group 1-9,text,false,,354,236,10,10,https://market-final-project.herokuapp.com/seller/product/:id,265,0,0
1668433797535,278,DELETE - Seller Product {id},403,Forbidden,Thread Group 1-10,text,false,,354,236,10,10,https://market-final-project.herokuapp.com/seller/product/:id,278,0,0
1668433794548,56597,GET - Buyer Product,200,OK,Thread Group 1-8,text,true,,5999279,209,10,10,https://market-final-project.herokuapp.com/buyer/product,1973,0,0
1668433851145,369,GET - Buyer Product {id},400,Bad Request,Thread Group 1-8,text,false,,3928,213,10,10,https://market-final-project.herokuapp.com/buyer/product/:id,369,0,0
1668433851514,372,POST - Buyer Order,403,Forbidden,Thread Group 1-8,text,false,,354,281,10,10,https://market-final-project.herokuapp.com/buyer/order,372,0,0
1668433851888,0,GET - Buyer Order,Non HTTP response code: java.net.URISyntaxException,Non HTTP response message: Illegal character in authority at index 8: https://{url}/buyer/order,Thread Group 1-8,text,false,,1120,0,10,10,https://{url}/buyer/order,0,0,0
1668433851888,0,GET - Buyer Order {id},Non HTTP response code: java.net.URISyntaxException,Non HTTP response message: Illegal character in authority at index 8: https://{url}/buyer/order/:id,Thread Group 1-8,text,false,,1124,0,10,10,https://{url}/buyer/order/:id,0,0,0
1668433851888,0,PUT - Buyer Order,Non HTTP response code: java.net.URISyntaxException,Non HTTP response message: Illegal character in authority at index 8: https://{url}/buyer/order/:id,Thread Group 1-8,text,false,,1124,0,10,10,https://{url}/buyer/order/:id,0,0,0
1668433797791,54762,GET - Buyer Product,200,OK,Thread Group 1-9,text,true,,5999279,209,9,9,https://market-final-project.herokuapp.com/buyer/product,3398,0,0
1668433797509,55084,GET - Buyer Product,200,OK,Thread Group 1-7,text,true,,5999279,209,9,9,https://market-final-project.herokuapp.com/buyer/product,3117,0,0
1668433852553,1183,GET - Buyer Product {id},400,Bad Request,Thread Group 1-9,text,false,,3928,213,9,9,https://market-final-project.herokuapp.com/buyer/product/:id,1183,0,890
1668433852593,1149,GET - Buyer Product {id},400,Bad Request,Thread Group 1-7,text,false,,3928,213,9,9,https://market-final-project.herokuapp.com/buyer/product/:id,1149,0,853
1668433853736,284,POST - Buyer Order,403,Forbidden,Thread Group 1-9,text,false,,354,281,9,9,https://market-final-project.herokuapp.com/buyer/order,284,0,0
1668433854021,0,GET - Buyer Order,Non HTTP response code: java.net.URISyntaxException,Non HTTP response message: Illegal character in authority at index 8: https://{url}/buyer/order,Thread Group 1-9,text,false,,1120,0,9,9,https://{url}/buyer/order,0,0,0
1668433854021,0,GET - Buyer Order {id},Non HTTP response code: java.net.URISyntaxException,Non HTTP response message: Illegal character in authority at index 8: https://{url}/buyer/order/:id,Thread Group 1-9,text,false,,1124,0,9,9,https://{url}/buyer/order/:id,0,0,0
1668433854022,0,PUT - Buyer Order,Non HTTP response code: java.net.URISyntaxException,Non HTTP response message: Illegal character in authority at index 8: https://{url}/buyer/order/:id,Thread Group 1-9,text,false,,1124,0,9,9,https://{url}/buyer/order/:id,0,0,0
1668433853743,321,POST - Buyer Order,403,Forbidden,Thread Group 1-7,text,false,,354,281,8,8,https://market-final-project.herokuapp.com/buyer/order,321,0,0
1668433854064,0,GET - Buyer Order,Non HTTP response code: java.net.URISyntaxException,Non HTTP response message: Illegal character in authority at index 8: https://{url}/buyer/order,Thread Group 1-7,text,false,,1120,0,8,8,https://{url}/buyer/order,0,0,0
1668433854065,0,GET - Buyer Order {id},Non HTTP response code: java.net.URISyntaxException,Non HTTP response message: Illegal character in authority at index 8: https://{url}/buyer/order/:id,Thread Group 1-7,text,false,,1124,0,8,8,https://{url}/buyer/order/:id,0,0,0
1668433854065,0,PUT - Buyer Order,Non HTTP response code: java.net.URISyntaxException,Non HTTP response message: Illegal character in authority at index 8: https://{url}/buyer/order/:id,Thread Group 1-7,text,false,,1124,0,8,8,https://{url}/buyer/order/:id,0,0,0
1668433794369,63698,GET - Buyer Product,200,OK,Thread Group 1-5,text,true,,5999279,209,7,7,https://market-final-project.herokuapp.com/buyer/product,1293,0,0
1668433858067,1065,GET - Buyer Product {id},400,Bad Request,Thread Group 1-5,text,false,,3928,213,7,7,https://market-final-project.herokuapp.com/buyer/product/:id,1064,0,794
1668433859132,288,POST - Buyer Order,403,Forbidden,Thread Group 1-5,text,false,,354,281,7,7,https://market-final-project.herokuapp.com/buyer/order,288,0,0
1668433859421,0,GET - Buyer Order,Non HTTP response code: java.net.URISyntaxException,Non HTTP response message: Illegal character in authority at index 8: https://{url}/buyer/order,Thread Group 1-5,text,false,,1120,0,7,7,https://{url}/buyer/order,0,0,0
1668433859422,0,GET - Buyer Order {id},Non HTTP response code: java.net.URISyntaxException,Non HTTP response message: Illegal character in authority at index 8: https://{url}/buyer/order/:id,Thread Group 1-5,text,false,,1124,0,7,7,https://{url}/buyer/order/:id,0,0,0
1668433859423,0,PUT - Buyer Order,Non HTTP response code: java.net.URISyntaxException,Non HTTP response message: Illegal character in authority at index 8: https://{url}/buyer/order/:id,Thread Group 1-5,text,false,,1124,0,7,7,https://{url}/buyer/order/:id,0,0,0
1668433793987,66960,GET - Buyer Product,200,OK,Thread Group 1-2,text,true,,5999279,209,6,6,https://market-final-project.herokuapp.com/buyer/product,1388,0,0
1668433797813,63750,GET - Buyer Product,200,OK,Thread Group 1-10,text,true,,5999279,209,6,6,https://market-final-project.herokuapp.com/buyer/product,3696,0,0
1668433860948,1030,GET - Buyer Product {id},400,Bad Request,Thread Group 1-2,text,false,,3928,213,6,6,https://market-final-project.herokuapp.com/buyer/product/:id,1030,0,775
1668433794033,68196,GET - Buyer Product,200,OK,Thread Group 1-3,text,true,,5999279,209,6,6,https://market-final-project.herokuapp.com/buyer/product,3456,0,0
1668433861978,265,POST - Buyer Order,403,Forbidden,Thread Group 1-2,text,false,,354,281,6,6,https://market-final-project.herokuapp.com/buyer/order,264,0,0
1668433862243,0,GET - Buyer Order,Non HTTP response code: java.net.URISyntaxException,Non HTTP response message: Illegal character in authority at index 8: https://{url}/buyer/order,Thread Group 1-2,text,false,,1120,0,6,6,https://{url}/buyer/order,0,0,0
1668433862244,0,GET - Buyer Order {id},Non HTTP response code: java.net.URISyntaxException,Non HTTP response message: Illegal character in authority at index 8: https://{url}/buyer/order/:id,Thread Group 1-2,text,false,,1124,0,6,6,https://{url}/buyer/order/:id,0,0,0
1668433862244,0,PUT - Buyer Order,Non HTTP response code: java.net.URISyntaxException,Non HTTP response message: Illegal character in authority at index 8: https://{url}/buyer/order/:id,Thread Group 1-2,text,false,,1124,0,6,6,https://{url}/buyer/order/:id,0,0,0
1668433793990,68272,GET - Buyer Product,200,OK,Thread Group 1-1,text,true,,5999279,209,5,5,https://market-final-project.herokuapp.com/buyer/product,2729,0,0
1668433794159,68170,GET - Buyer Product,200,OK,Thread Group 1-4,text,true,,5999279,209,5,5,https://market-final-project.herokuapp.com/buyer/product,4258,0,0
1668433861563,1062,GET - Buyer Product {id},400,Bad Request,Thread Group 1-10,text,false,,3928,213,5,5,https://market-final-project.herokuapp.com/buyer/product/:id,1062,0,794
1668433862625,276,POST - Buyer Order,403,Forbidden,Thread Group 1-10,text,false,,354,281,5,5,https://market-final-project.herokuapp.com/buyer/order,276,0,0
1668433862902,0,GET - Buyer Order,Non HTTP response code: java.net.URISyntaxException,Non HTTP response message: Illegal character in authority at index 8: https://{url}/buyer/order,Thread Group 1-10,text,false,,1120,0,5,5,https://{url}/buyer/order,0,0,0
1668433862902,0,GET - Buyer Order {id},Non HTTP response code: java.net.URISyntaxException,Non HTTP response message: Illegal character in authority at index 8: https://{url}/buyer/order/:id,Thread Group 1-10,text,false,,1124,0,5,5,https://{url}/buyer/order/:id,0,0,0
1668433862903,0,PUT - Buyer Order,Non HTTP response code: java.net.URISyntaxException,Non HTTP response message: Illegal character in authority at index 8: https://{url}/buyer/order/:id,Thread Group 1-10,text,false,,1124,0,5,5,https://{url}/buyer/order/:id,0,0,0
1668433862229,1026,GET - Buyer Product {id},400,Bad Request,Thread Group 1-3,text,false,,3928,213,4,4,https://market-final-project.herokuapp.com/buyer/product/:id,1026,0,766
1668433862262,1018,GET - Buyer Product {id},400,Bad Request,Thread Group 1-1,text,false,,3928,213,4,4,https://market-final-project.herokuapp.com/buyer/product/:id,1018,0,759
1668433862362,1061,GET - Buyer Product {id},400,Bad Request,Thread Group 1-4,text,false,,3928,213,4,4,https://market-final-project.herokuapp.com/buyer/product/:id,1058,0,781
1668433863255,268,POST - Buyer Order,403,Forbidden,Thread Group 1-3,text,false,,354,281,4,4,https://market-final-project.herokuapp.com/buyer/order,267,0,0
1668433863525,0,GET - Buyer Order,Non HTTP response code: java.net.URISyntaxException,Non HTTP response message: Illegal character in authority at index 8: https://{url}/buyer/order,Thread Group 1-3,text,false,,1120,0,4,4,https://{url}/buyer/order,0,0,0
1668433863526,0,GET - Buyer Order {id},Non HTTP response code: java.net.URISyntaxException,Non HTTP response message: Illegal character in authority at index 8: https://{url}/buyer/order/:id,Thread Group 1-3,text,false,,1124,0,4,4,https://{url}/buyer/order/:id,0,0,0
1668433863527,0,PUT - Buyer Order,Non HTTP response code: java.net.URISyntaxException,Non HTTP response message: Illegal character in authority at index 8: https://{url}/buyer/order/:id,Thread Group 1-3,text,false,,1124,0,4,4,https://{url}/buyer/order/:id,0,0,0
1668433863280,266,POST - Buyer Order,403,Forbidden,Thread Group 1-1,text,false,,354,281,3,3,https://market-final-project.herokuapp.com/buyer/order,266,0,0
1668433863547,0,GET - Buyer Order,Non HTTP response code: java.net.URISyntaxException,Non HTTP response message: Illegal character in authority at index 8: https://{url}/buyer/order,Thread Group 1-1,text,false,,1120,0,3,3,https://{url}/buyer/order,0,0,0
1668433863547,0,GET - Buyer Order {id},Non HTTP response code: java.net.URISyntaxException,Non HTTP response message: Illegal character in authority at index 8: https://{url}/buyer/order/:id,Thread Group 1-1,text,false,,1124,0,3,3,https://{url}/buyer/order/:id,0,0,0
1668433863547,0,PUT - Buyer Order,Non HTTP response code: java.net.URISyntaxException,Non HTTP response message: Illegal character in authority at index 8: https://{url}/buyer/order/:id,Thread Group 1-1,text,false,,1124,0,3,3,https://{url}/buyer/order/:id,0,0,0
1668433863423,276,POST - Buyer Order,403,Forbidden,Thread Group 1-4,text,false,,354,281,2,2,https://market-final-project.herokuapp.com/buyer/order,276,0,0
1668433863700,0,GET - Buyer Order,Non HTTP response code: java.net.URISyntaxException,Non HTTP response message: Illegal character in authority at index 8: https://{url}/buyer/order,Thread Group 1-4,text,false,,1120,0,2,2,https://{url}/buyer/order,0,0,0
1668433863701,0,GET - Buyer Order {id},Non HTTP response code: java.net.URISyntaxException,Non HTTP response message: Illegal character in authority at index 8: https://{url}/buyer/order/:id,Thread Group 1-4,text,false,,1124,0,2,2,https://{url}/buyer/order/:id,0,0,0
1668433863701,0,PUT - Buyer Order,Non HTTP response code: java.net.URISyntaxException,Non HTTP response message: Illegal character in authority at index 8: https://{url}/buyer/order/:id,Thread Group 1-4,text,false,,1124,0,2,2,https://{url}/buyer/order/:id,0,0,0
1668433797494,70634,GET - Buyer Product,200,OK,Thread Group 1-6,text,true,,5999279,209,1,1,https://market-final-project.herokuapp.com/buyer/product,2094,0,0
1668433868128,1067,GET - Buyer Product {id},400,Bad Request,Thread Group 1-6,text,false,,3928,213,1,1,https://market-final-project.herokuapp.com/buyer/product/:id,1067,0,777
1668433869195,268,POST - Buyer Order,403,Forbidden,Thread Group 1-6,text,false,,354,281,1,1,https://market-final-project.herokuapp.com/buyer/order,268,0,0
1668433869464,0,GET - Buyer Order,Non HTTP response code: java.net.URISyntaxException,Non HTTP response message: Illegal character in authority at index 8: https://{url}/buyer/order,Thread Group 1-6,text,false,,1120,0,1,1,https://{url}/buyer/order,0,0,0
1668433869464,0,GET - Buyer Order {id},Non HTTP response code: java.net.URISyntaxException,Non HTTP response message: Illegal character in authority at index 8: https://{url}/buyer/order/:id,Thread Group 1-6,text,false,,1124,0,1,1,https://{url}/buyer/order/:id,0,0,0
1668433869464,0,PUT - Buyer Order,Non HTTP response code: java.net.URISyntaxException,Non HTTP response message: Illegal character in authority at index 8: https://{url}/buyer/order/:id,Thread Group 1-6,text,false,,1124,0,1,1,https://{url}/buyer/order/:id,0,0,0
